<?xml version="1.0" encoding="UTF-8" standalone="no"?>
<!-- Created with Inkscape (http://www.inkscape.org/) -->

<svg
   width="210mm"
   height="297mm"
   viewBox="0 0 210 297"
   version="1.1"
   id="svg5945"
   xml:space="preserve"
   inkscape:version="1.2.1 (9c6d41e410, 2022-07-14)"
   sodipodi:docname="clover.svg"
   xmlns:inkscape="http://www.inkscape.org/namespaces/inkscape"
   xmlns:sodipodi="http://sodipodi.sourceforge.net/DTD/sodipodi-0.dtd"
   xmlns="http://www.w3.org/2000/svg"
   xmlns:svg="http://www.w3.org/2000/svg"><sodipodi:namedview
     id="namedview5947"
     pagecolor="#ffffff"
     bordercolor="#666666"
     borderopacity="1.0"
     inkscape:showpageshadow="2"
     inkscape:pageopacity="0.0"
     inkscape:pagecheckerboard="0"
     inkscape:deskcolor="#d1d1d1"
     inkscape:document-units="mm"
     showgrid="false"
     inkscape:zoom="0.51591118"
     inkscape:cx="385.72531"
     inkscape:cy="409.95429"
     inkscape:window-width="1920"
     inkscape:window-height="997"
     inkscape:window-x="0"
     inkscape:window-y="27"
     inkscape:window-maximized="1"
     inkscape:current-layer="layer1" /><defs
     id="defs5942" /><g
     inkscape:label="Layer 1"
     inkscape:groupmode="layer"
     id="layer1"><path
       style="fill:#000000;stroke-width:0.180282"
       d="m 46.553932,157.13729 c -1.180895,-0.40782 -1.74549,-0.81372 -2.500948,-1.79806 -0.713294,-0.92938 -1.131383,-2.27472 -1.131383,-3.64059 0,-1.17687 0.394447,-1.88155 2.278394,-4.07048 2.723071,-3.16389 4.095864,-5.20805 5.830273,-8.68155 4.376148,-8.76412 6.170577,-18.85752 6.752653,-37.98265 0.05833,-1.916418 0.03157,-2.929675 -0.07144,-2.704206 -0.09058,0.198337 -0.583724,1.658584 -1.095856,3.245056 -3.96907,12.29539 -9.540319,20.12009 -15.857412,22.27139 -1.627625,0.5543 -4.056008,0.67077 -5.816901,0.27902 -4.988507,-1.10985 -10.291317,-5.96791 -15.267657,-13.98716 -2.024021,-3.26167 -2.077219,-3.32703 -3.42853,-4.21336 -0.647371,-0.42463 -2.242699,-1.47489 -3.54517,-2.33393 C 3.246469,97.285742 -1.096011,90.846192 0.08654222,84.816049 1.2402484,78.933009 6.9094396,73.803129 16.961041,69.5468 c 4.045672,-1.713121 10.125097,-3.530102 15.504217,-4.633814 1.239435,-0.254314 2.659154,-0.572149 3.154927,-0.706294 l 0.901408,-0.244011 -0.523927,-0.209756 C 35.709506,63.637497 34.249226,63.297817 32.752598,62.998102 23.847222,61.214657 14.416488,57.746166 9.1968246,54.334624 1.6646053,49.41162 -1.3951623,43.680026 0.39219728,37.841673 1.8708312,33.011765 7.3404243,27.335142 14.709218,22.98274 c 1.044005,-0.616644 2.200859,-1.415084 2.570781,-1.774307 0.369925,-0.359226 1.437115,-1.869345 2.371533,-3.35582 3.491289,-5.553965 6.272556,-8.8046302 9.748939,-11.3942695 8.743286,-6.51308679 17.73577,-2.0090925 24.20146,12.1215905 2.25093,4.919374 3.82483,9.910682 5.473361,17.35766 0.454217,2.051848 0.894076,3.852322 0.977467,4.001055 0.200447,0.357526 0.191337,0.387569 0.98359,-3.24507 3.06614,-14.059051 6.999954,-23.073157 12.459672,-28.5506115 3.997038,-4.0100232 8.006453,-5.3570547 12.422732,-4.1736277 4.868366,1.3045689 10.408648,6.6664542 15.278187,14.7862202 0.65411,1.090704 1.41875,2.198309 1.69921,2.461345 0.28045,0.263038 1.34209,0.975488 2.35919,1.583226 7.03556,4.20389 12.27322,9.278777 14.11019,13.671678 0.57391,1.372445 1.07869,3.61253 1.07402,4.766281 -0.008,2.074504 -1.05074,4.911692 -2.59657,7.067658 -0.92328,1.287677 -3.1734,3.500488 -4.68611,4.60842 -5.95586,4.362071 -15.313089,7.980444 -26.777074,10.354457 -1.233748,0.255505 -2.312034,0.5334 -2.396192,0.617551 -0.08415,0.08415 1.046967,0.414993 2.513604,0.735187 9.550138,2.085022 15.016422,3.862137 20.604632,6.698705 6.76324,3.433018 10.79534,7.110223 12.4222,11.328795 2.00849,5.208198 0.51774,9.827292 -4.92553,15.261778 -2.44225,2.438309 -4.97509,4.390799 -8.56705,6.604029 -1.33641,0.82346 -2.75778,1.82247 -3.1586,2.22001 -0.40082,0.39757 -1.36227,1.78017 -2.13655,3.07246 -2.871213,4.79209 -6.49856,9.08245 -9.641448,11.40374 -7.283511,5.37948 -14.404949,3.69982 -20.418383,-4.81589 -2.517719,-3.5654 -4.566571,-7.86716 -6.864446,-14.41263 -0.676173,-1.92608 -1.279155,-3.5516 -1.339964,-3.612292 -0.06082,-0.06057 -0.06283,0.457565 -0.0045,1.151646 0.454785,5.410706 0.864464,20.885166 0.642614,24.272956 -0.680586,10.39304 -3.434667,19.71885 -7.998624,27.0848 -2.293402,3.70144 -3.833078,5.5132 -5.249143,6.17683 -1.080193,0.50622 -2.01116,0.529 -3.308508,0.0809 z"
       id="path8324" /><path
       style="fill:#000000;stroke-width:0.556759"
       d="m 115.4435,298.18282 c -10.00343,-4.23556 -1.5242,-15.53428 5.97396,-16.60378 12.7774,-8.65639 20.15323,-23.31758 23.35234,-38.07634 -7.13923,7.90481 -13.77492,18.24722 -25.14635,20.08525 -10.40362,2.33903 -20.869651,-5.94317 -22.159216,-16.27817 -2.543684,-5.95027 3.805116,-12.49052 0.155189,-17.33858 -5.849161,-5.64036 -10.013534,-13.33197 -8.027995,-21.65335 1.379927,-10.80729 13.335562,-16.85161 23.384942,-15.1143 13.14623,1.35986 23.82976,9.7547 34.89549,16.15234 -7.76534,-12.96997 -17.09115,-27.20519 -14.97165,-43.03689 1.87937,-10.03265 12.33774,-17.81027 22.53689,-15.2771 7.56125,-0.0815 12.36525,8.96494 17.26756,10.54961 9.81535,-4.45907 22.97056,-1.58661 28.33789,8.26582 5.18136,9.70336 -0.0649,21.3022 -7.71677,28.00792 -7.45891,7.46116 -17.5733,11.20469 -26.44618,16.61413 14.38003,0.37768 30.1454,-1.31982 42.60901,7.44426 7.38603,4.30478 10.33075,13.58442 7.69069,21.52834 -2.73013,8.55727 -11.28175,14.83911 -20.24132,15.02861 -3.33149,7.06292 -4.65265,16.27915 -12.85806,19.56152 -8.60307,4.77736 -20.89932,2.01817 -25.54167,-6.99778 -4.2242,-5.31485 -5.21672,-16.10872 -6.67548,-19.81651 -3.59987,11.54946 -7.08165,23.52123 -15.10116,32.92386 -5.20954,6.32929 -11.95305,12.12197 -19.93841,14.27913 -0.46201,-0.0703 -0.9201,-0.16537 -1.3797,-0.24799 z"
       id="path8326" /></g></svg>
