<?xml version="1.0" encoding="UTF-8" standalone="no"?>
<!-- Created with Inkscape (http://www.inkscape.org/) -->

<svg
   width="210mm"
   height="297mm"
   viewBox="0 0 210 297"
   version="1.1"
   id="svg5"
   xml:space="preserve"
   inkscape:version="1.2.1 (9c6d41e410, 2022-07-14)"
   sodipodi:docname="infinity2.svg"
   xmlns:inkscape="http://www.inkscape.org/namespaces/inkscape"
   xmlns:sodipodi="http://sodipodi.sourceforge.net/DTD/sodipodi-0.dtd"
   xmlns="http://www.w3.org/2000/svg"
   xmlns:svg="http://www.w3.org/2000/svg"><sodipodi:namedview
     id="namedview7"
     pagecolor="#ffffff"
     bordercolor="#666666"
     borderopacity="1.0"
     inkscape:showpageshadow="2"
     inkscape:pageopacity="0.0"
     inkscape:pagecheckerboard="0"
     inkscape:deskcolor="#d1d1d1"
     inkscape:document-units="mm"
     showgrid="false"
     inkscape:zoom="1.4592172"
     inkscape:cx="211.07207"
     inkscape:cy="127.80825"
     inkscape:window-width="1920"
     inkscape:window-height="997"
     inkscape:window-x="0"
     inkscape:window-y="27"
     inkscape:window-maximized="1"
     inkscape:current-layer="layer1"
     showguides="false" /><defs
     id="defs2" /><g
     inkscape:label="Layer 1"
     inkscape:groupmode="layer"
     id="layer1"><rect
       style="fill:#00ff00;stroke:#000000;stroke-width:0.158417"
       id="rect17364"
       width="3.8415825"
       height="3.8415825"
       x="65.480354"
       y="-1.1262467" /><rect
       style="fill:#00ff00;stroke:#000000;stroke-width:0.158417"
       id="rect17364-2"
       width="3.8415825"
       height="3.8415825"
       x="101.17135"
       y="-6.5876837" /><rect
       style="fill:#00ff00;stroke:#000000;stroke-width:0.158417"
       id="rect17364-9"
       width="3.8415825"
       height="3.8415825"
       x="84.119797"
       y="49.392517" /><path
       id="path17531-2"
       style="fill:#ff0000;stroke:#000000;stroke-width:0;stroke-dasharray:none"
       d="m 122.64884,53.620781 a 22.5,24.409739 0 0 0 -22.49991,24.409881 22.5,24.409739 0 0 0 22.49991,24.409878 22.5,24.409739 0 0 0 22.49992,-24.409878 22.5,24.409739 0 0 0 -22.49992,-24.409881 z m 0,3.959966 a 18.5,20.449999 0 0 1 18.50017,20.449915 18.5,20.449999 0 0 1 -18.50017,20.449913 18.5,20.449999 0 0 1 -18.50016,-20.449913 18.5,20.449999 0 0 1 18.50016,-20.449915 z" /><path
       id="path17531-2-0"
       style="fill:#ff0000;stroke:#000000;stroke-width:0;stroke-dasharray:none"
       d="m 183.18218,53.620782 a 22.5,24.409739 0 0 1 22.49991,24.409877 22.5,24.409739 0 0 1 -22.49991,24.409881 22.5,24.409739 0 0 1 -22.49992,-24.409881 22.5,24.409739 0 0 1 22.49992,-24.409877 z m 0,3.959965 a 18.5,20.449999 0 0 0 -18.50017,20.449912 18.5,20.449999 0 0 0 18.50017,20.44992 18.5,20.449999 0 0 0 18.50016,-20.44992 18.5,20.449999 0 0 0 -18.50016,-20.449912 z" /><rect
       style="fill:#0000ff;stroke:#000000;stroke-width:0;stroke-dasharray:none"
       id="rect17453"
       width="3.9999993"
       height="50.218792"
       x="161.45749"
       y="-77.632355"
       transform="rotate(45)" /><rect
       style="fill:#0000ff;stroke:#000000;stroke-width:0;stroke-dasharray:none"
       id="rect17453-1"
       width="3.9999993"
       height="50.218792"
       x="-54.897137"
       y="137.97391"
       transform="matrix(-0.70710678,0.70710678,0.70710678,0.70710678,0,0)" /><rect
       style="fill:#0000ff;stroke:#000000;stroke-width:0;stroke-dasharray:none"
       id="rect17453-1-6"
       width="3.9999993"
       height="50.218792"
       x="-22.46224"
       y="191.30058"
       transform="matrix(-0.70710678,0.70710678,0.70710678,0.70710678,0,0)" /><rect
       style="fill:#0000ff;stroke:#000000;stroke-width:0;stroke-dasharray:none"
       id="rect17453-1-6-0"
       width="3.9999993"
       height="50.218792"
       x="214.40997"
       y="-45.571644"
       transform="rotate(45)" /><path
       sodipodi:type="star"
       style="fill:#00ff00;stroke:#000000;stroke-width:0;stroke-dasharray:none"
       id="path17710"
       inkscape:flatsided="true"
       sodipodi:sides="3"
       sodipodi:cx="122.77653"
       sodipodi:cy="78.112846"
       sodipodi:r1="22.133593"
       sodipodi:r2="11.066796"
       sodipodi:arg1="-1.0648865"
       sodipodi:arg2="-0.017688969"
       inkscape:rounded="0"
       inkscape:randomized="0"
       d="m 133.50254,58.751842 0.6781,38.330509 -33.53424,-18.578005 z"
       inkscape:transform-center-x="4.5280536"
       inkscape:transform-center-y="0.093619888"
       transform="matrix(0.82744909,0.03137164,-0.02004368,1.2950935,33.240039,-27.284978)" /><path
       id="path17531-2-9"
       style="fill:#000080;stroke:#000000;stroke-width:0;stroke-dasharray:none"
       d="m 137.28309,114.0194 c -12.42643,5e-5 -22.49999,10.92873 -22.49992,24.40988 -7e-5,13.48115 10.07349,24.40983 22.49992,24.40988 5.00776,-1.3e-4 9.87236,-1.81268 13.82345,-5.15059 l -2.96054,-2.71612 c -3.15748,2.53636 -6.95978,3.90382 -10.86291,3.90674 -10.2173,1e-4 -18.50012,-9.15565 -18.50016,-20.44991 4e-5,-11.29426 8.28286,-20.45002 18.50016,-20.44992 3.78499,0.005 7.47764,1.29241 10.57972,3.6897 l 3.0179,-2.68614 c -3.91187,-3.21988 -8.68727,-4.96303 -13.59762,-4.96352 z"
       sodipodi:nodetypes="ccccccccccc" /></g></svg>
