<?xml version="1.0" encoding="UTF-8" standalone="no"?>
<svg
   xmlns:dc="http://purl.org/dc/elements/1.1/"
   xmlns:cc="http://creativecommons.org/ns#"
   xmlns:rdf="http://www.w3.org/1999/02/22-rdf-syntax-ns#"
   xmlns:svg="http://www.w3.org/2000/svg"
   xmlns="http://www.w3.org/2000/svg"
   xmlns:sodipodi="http://sodipodi.sourceforge.net/DTD/sodipodi-0.dtd"
   xmlns:inkscape="http://www.inkscape.org/namespaces/inkscape"
   width="210mm"
   height="297mm"
   viewBox="0 0 210 297"
   version="1.1"
   id="svg1550"
   inkscape:version="1.0.2 (e86c870879, 2021-01-15)"
   sodipodi:docname="jr-base.svg">
  <defs
     id="defs1544" />
  <sodipodi:namedview
     id="base"
     pagecolor="#ffffff"
     bordercolor="#666666"
     borderopacity="1.0"
     inkscape:pageopacity="0.0"
     inkscape:pageshadow="2"
     inkscape:zoom="0.35"
     inkscape:cx="400"
     inkscape:cy="560"
     inkscape:document-units="mm"
     inkscape:current-layer="layer1"
     inkscape:document-rotation="0"
     showgrid="false"
     inkscape:window-width="1513"
     inkscape:window-height="1016"
     inkscape:window-x="0"
     inkscape:window-y="32"
     inkscape:window-maximized="0" />
  <metadata
     id="metadata1547">
    <rdf:RDF>
      <cc:Work
         rdf:about="">
        <dc:format>image/svg+xml</dc:format>
        <dc:type
           rdf:resource="http://purl.org/dc/dcmitype/StillImage" />
        <dc:title></dc:title>
      </cc:Work>
    </rdf:RDF>
  </metadata>
  <g
     inkscape:label="Layer 1"
     inkscape:groupmode="layer"
     id="layer1">
    <path
       id="path847"
       style="fill:#000000;stroke:#000000;stroke-width:1.0514"
       d="M 139.57142,-12.438194 C 81.943974,-12.438008 35.227825,34.278372 35.227926,91.905818 35.227878,141.7818 70.524854,184.68401 119.46619,194.2944 h -1.47898 c 0.2201,0.3776 -3.8462,7.27508 -5.91695,10.0366 -3.63965,4.85376 -8.56357,10.08799 -12.419914,13.20333 -2.20164,1.77859 -6.33743,4.64763 -8.62015,5.97948 -1.82779,1.06643 -8.59139,4.34581 -10.19214,4.94182 -0.79417,0.29568 -1.17928,0.42201 -4.93097,1.61747 -3.76767,1.20055 -12.84344,2.93312 -17.95394,3.42718 -5.84288,0.56484 -10.03427,2.18803 -13.00282,5.03536 -1.02428,0.98245 -1.86562,1.89138 -1.86862,2.02002 -0.003,0.12866 -0.22041,0.47199 -0.48266,0.76274 -0.26226,0.29075 -0.48186,0.61404 -0.48886,0.71831 -0.007,0.1043 -0.21639,0.48176 -0.46664,0.83924 -0.25026,0.35745 -0.49742,0.82788 -0.54932,1.04489 -0.0519,0.21701 -0.17789,0.45431 -0.28008,0.5276 -0.64758,0.46424 -1.04134,6.22247 -0.54881,8.0264 0.4995,1.82949 1.44803,3.89332 2.22829,4.84775 0.36472,0.44612 0.66136,0.90064 0.65836,1.00976 -0.003,0.10909 0.1069,0.20063 0.2434,0.20465 0.13649,0.003 0.63306,0.38225 1.10329,0.8418 1.63615,1.59906 4.13203,2.62059 7.28379,2.98069 0.94343,0.10779 1.73796,0.21752 1.76526,0.24392 0.0273,0.0265 1.39798,-0.008 3.04581,-0.0775 9.8052,-0.41019 23.51297,-3.26144 33.7535,-7.02075 19.971464,-7.33157 36.106294,-19.78141 47.867364,-36.93522 0.5639,-0.82247 1.17485,-1.49172 1.35754,-1.48673 0.18269,-0.005 0.79312,0.66426 1.35702,1.48673 11.76106,17.15381 27.8959,29.60365 47.86736,36.93522 10.24053,3.75931 23.94829,6.61056 33.7535,7.02075 1.64783,0.0693 3.01851,0.10403 3.04581,0.0775 0.0273,-0.0265 0.82184,-0.13613 1.76526,-0.24392 3.15177,-0.3601 5.64765,-1.38163 7.2838,-2.98069 0.47023,-0.45955 0.9668,-0.8378 1.10329,-0.8418 0.1365,-0.004 0.2464,-0.0956 0.24339,-0.20465 -0.003,-0.10912 0.29364,-0.56364 0.65836,-1.00976 0.78026,-0.95443 1.72879,-3.01826 2.22829,-4.84775 0.49253,-1.80393 0.0988,-7.56216 -0.5488,-8.0264 -0.10219,-0.0733 -0.22819,-0.31059 -0.28009,-0.5276 -0.0519,-0.21701 -0.29906,-0.68744 -0.54932,-1.04489 -0.25025,-0.35748 -0.46064,-0.73494 -0.46664,-0.83924 -0.007,-0.10427 -0.2266,-0.42756 -0.48886,-0.71831 -0.26225,-0.29075 -0.47965,-0.63408 -0.48265,-0.76274 -0.003,-0.12864 -0.84434,-1.03757 -1.86862,-2.02002 -2.96855,-2.84733 -7.15995,-4.47052 -13.00283,-5.03536 -5.1105,-0.49406 -14.18627,-2.22663 -17.95394,-3.42718 -3.75169,-1.19546 -4.1368,-1.32179 -4.93096,-1.61747 -1.60075,-0.59601 -8.36436,-3.87539 -10.19215,-4.94182 -2.28272,-1.33185 -6.4185,-4.20089 -8.62014,-5.97948 -3.85634,-3.11534 -8.78027,-8.34957 -12.41992,-13.20333 -2.07075,-2.76152 -6.13705,-9.659 -5.91695,-10.0366 h -1.47846 c 48.94113,-9.61061 84.23785,-52.51276 84.23775,-102.388582 1e-4,-57.627651 -46.71637,-104.344117 -104.34402,-104.344012 z"
       sodipodi:nodetypes="ccccsssssssssssscssscssccssccscsssssssssscssssssssscccc" />
  </g>
</svg>
