<?xml version="1.0" encoding="UTF-8" standalone="no"?>
<svg
   xmlns:dc="http://purl.org/dc/elements/1.1/"
   xmlns:cc="http://creativecommons.org/ns#"
   xmlns:rdf="http://www.w3.org/1999/02/22-rdf-syntax-ns#"
   xmlns:svg="http://www.w3.org/2000/svg"
   xmlns="http://www.w3.org/2000/svg"
   xmlns:sodipodi="http://sodipodi.sourceforge.net/DTD/sodipodi-0.dtd"
   xmlns:inkscape="http://www.inkscape.org/namespaces/inkscape"
   width="210mm"
   height="297mm"
   viewBox="0 0 210 297"
   version="1.1"
   id="svg925"
   inkscape:version="1.0.2 (e86c870879, 2021-01-15)"
   sodipodi:docname="jr-outline.svg">
  <defs
     id="defs919" />
  <sodipodi:namedview
     id="base"
     pagecolor="#ffffff"
     bordercolor="#666666"
     borderopacity="1.0"
     inkscape:pageopacity="0.0"
     inkscape:pageshadow="2"
     inkscape:zoom="0.35"
     inkscape:cx="400"
     inkscape:cy="560"
     inkscape:document-units="mm"
     inkscape:current-layer="layer1"
     inkscape:document-rotation="0"
     showgrid="false"
     inkscape:window-width="1513"
     inkscape:window-height="1016"
     inkscape:window-x="397"
     inkscape:window-y="32"
     inkscape:window-maximized="0" />
  <metadata
     id="metadata922">
    <rdf:RDF>
      <cc:Work
         rdf:about="">
        <dc:format>image/svg+xml</dc:format>
        <dc:type
           rdf:resource="http://purl.org/dc/dcmitype/StillImage" />
        <dc:title></dc:title>
      </cc:Work>
    </rdf:RDF>
  </metadata>
  <g
     inkscape:label="Layer 1"
     inkscape:groupmode="layer"
     id="layer1">
    <path
       id="path847"
       style="fill:#000000;stroke:#000000;stroke-width:1.0514"
       d="M 0.77216377,-119.31478 A 104.34383,104.34383 0 0 0 -103.57133,-14.970769 104.34383,104.34383 0 0 0 -19.333066,87.417811 h -1.47898 c 0.2201,0.3776 -3.8462,7.27508 -5.91695,10.0366 -3.63965,4.853759 -8.56357,10.087989 -12.41991,13.203329 -2.20164,1.77859 -6.33743,4.64763 -8.62015,5.97948 -1.82779,1.06643 -8.59139,4.34581 -10.19214,4.94182 -0.79417,0.29568 -1.17928,0.42201 -4.93097,1.61747 -3.76767,1.20055 -12.84344,2.93312 -17.95394,3.42718 -5.84288,0.56484 -10.034275,2.18803 -13.002824,5.03536 -1.02428,0.98245 -1.86562,1.89138 -1.86862,2.02002 -0.0033,0.12866 -0.220408,0.47199 -0.482658,0.76274 -0.26226,0.29075 -0.481859,0.61404 -0.488859,0.71831 -0.0065,0.1043 -0.216388,0.48176 -0.466638,0.83924 -0.25026,0.35745 -0.49742,0.82788 -0.54932,1.04489 -0.05192,0.21701 -0.177897,0.45431 -0.280087,0.5276 -0.64758,0.46424 -1.041333,6.22247 -0.548803,8.0264 0.4995,1.82949 1.448027,3.89332 2.228288,4.84775 0.364719,0.44612 0.661357,0.90064 0.658357,1.00976 -0.0026,0.10909 0.106896,0.20063 0.243396,0.20465 0.13649,0.003 0.633062,0.38225 1.103292,0.8418 1.636149,1.59906 4.132033,2.62059 7.283793,2.98069 0.943433,0.10779 1.737963,0.21752 1.765263,0.24392 0.0273,0.0265 1.39798,-0.008 3.04581,-0.0775 9.8052,-0.41019 23.51297,-3.26144 33.7535,-7.02075 19.97146,-7.33157 36.10629,-19.78141 47.86735977,-36.93522 0.5639,-0.82247 1.17485,-1.49172 1.35754,-1.48673 0.18269,-0.005 0.79312003,0.66426 1.35702003,1.48673 11.7610602,17.15381 27.8959002,29.60365 47.8673602,36.93522 10.24053,3.75931 23.94829,6.61056 33.7535,7.02075 1.64783,0.0693 3.01851,0.10403 3.04581,0.0775 0.0273,-0.0265 0.82184,-0.13613 1.76526,-0.24392 3.15177,-0.3601 5.64765,-1.38163 7.2838,-2.98069 0.47023,-0.45955 0.9668,-0.8378 1.10329,-0.8418 0.1365,-0.004 0.2464,-0.0956 0.24339,-0.20465 -0.003,-0.10912 0.29364,-0.56364 0.65836,-1.00976 0.78026,-0.95443 1.72879,-3.01826 2.228286,-4.84775 0.49253,-1.80393 0.0988,-7.56216 -0.548796,-8.0264 -0.10219,-0.0733 -0.22819,-0.31059 -0.28009,-0.5276 -0.0519,-0.21701 -0.29906,-0.68744 -0.54932,-1.04489 -0.25025,-0.35748 -0.46064,-0.73494 -0.46664,-0.83924 -0.007,-0.10427 -0.2266,-0.42756 -0.48886,-0.71831 -0.26225,-0.29075 -0.47965,-0.63408 -0.48265,-0.76274 -0.003,-0.12864 -0.84434,-1.03757 -1.86862,-2.02002 -2.96855,-2.84733 -7.15995,-4.47052 -13.00283,-5.03536 -5.1105,-0.49406 -14.18627,-2.22663 -17.95394,-3.42718 -3.75169,-1.19546 -4.1368,-1.32179 -4.93096,-1.61747 -1.60075,-0.59601 -8.36436,-3.87539 -10.19215,-4.94182 -2.28272,-1.33185 -6.4185,-4.20089 -8.62014,-5.97948 -3.85634,-3.11534 -8.78027,-8.34957 -12.41992,-13.203329 -2.07075,-2.76152 -6.13705,-9.659 -5.91695,-10.0366 h -1.47846 A 104.34383,104.34383 0 0 0 105.11618,-14.970769 104.34383,104.34383 0 0 0 0.77216377,-119.31478 Z M -14.080156,-88.171981 V 58.230451 a 74.692985,74.692985 0 0 1 -59.84079,-73.20122 74.692985,74.692985 0 0 1 59.84079,-73.201212 z m 29.70516,0 a 74.692985,74.692985 0 0 1 59.84028,73.201212 74.692985,74.692985 0 0 1 -59.84028,73.20122 z" />
  </g>
</svg>
