<?xml version="1.0" encoding="UTF-8" standalone="no"?>
<svg
   width="210mm"
   height="297mm"
   viewBox="0 0 210 297"
   version="1.1"
   id="svg8"
   inkscape:version="1.2.1 (9c6d41e410, 2022-07-14)"
   sodipodi:docname="jr2.svg"
   xmlns:inkscape="http://www.inkscape.org/namespaces/inkscape"
   xmlns:sodipodi="http://sodipodi.sourceforge.net/DTD/sodipodi-0.dtd"
   xmlns="http://www.w3.org/2000/svg"
   xmlns:svg="http://www.w3.org/2000/svg"
   xmlns:rdf="http://www.w3.org/1999/02/22-rdf-syntax-ns#"
   xmlns:cc="http://creativecommons.org/ns#"
   xmlns:dc="http://purl.org/dc/elements/1.1/">
  <defs
     id="defs2" />
  <sodipodi:namedview
     id="base"
     pagecolor="#ffffff"
     bordercolor="#666666"
     borderopacity="1.0"
     inkscape:pageopacity="0.0"
     inkscape:pageshadow="2"
     inkscape:zoom="0.12374369"
     inkscape:cx="258.59905"
     inkscape:cy="238.396"
     inkscape:document-units="mm"
     inkscape:current-layer="layer1"
     inkscape:document-rotation="0"
     showgrid="false"
     showguides="true"
     inkscape:guide-bbox="true"
     inkscape:window-width="1920"
     inkscape:window-height="997"
     inkscape:window-x="0"
     inkscape:window-y="27"
     inkscape:window-maximized="1"
     inkscape:showpageshadow="2"
     inkscape:pagecheckerboard="0"
     inkscape:deskcolor="#d1d1d1">
    <sodipodi:guide
       position="-483.22329,-69.693793"
       orientation="0,-1"
       id="guide873"
       inkscape:locked="false" />
    <sodipodi:guide
       position="339.96683,201.71842"
       orientation="0,-1"
       id="guide3322"
       inkscape:locked="false" />
  </sodipodi:namedview>
  <metadata
     id="metadata5">
    <rdf:RDF>
      <cc:Work
         rdf:about="">
        <dc:format>image/svg+xml</dc:format>
        <dc:type
           rdf:resource="http://purl.org/dc/dcmitype/StillImage" />
      </cc:Work>
    </rdf:RDF>
  </metadata>
  <g
     inkscape:label="Layer 1"
     inkscape:groupmode="layer"
     id="layer1">
    <path
       id="path3228-6"
       style="fill:#00ff00;stroke:#261212;stroke-width:1;stroke-dasharray:none"
       d="m 12.741475,-30.662331 a 49.475391,49.475391 0 0 0 -49.475017,49.475533 49.475391,49.475391 0 0 0 44.0675954,49.143769 44.527847,44.527847 0 0 1 -32.2693484,18.30379 2.4787215,2.4297096 0 0 0 -0.375688,-0.0279 2.4787215,2.4297096 0 0 0 -2.478402,2.42931 2.4787215,2.4297096 0 0 0 2.235523,2.4169 v 0.19379 a 49.475391,49.475391 0 0 0 38.295337,-22.51335 49.475391,49.475391 0 0 0 38.295858,22.51335 v -0.19379 a 2.4787215,2.4297096 0 0 0 2.23552,-2.4169 2.4787215,2.4297096 0 0 0 -2.4784,-2.42931 2.4787215,2.4297096 0 0 0 -0.37569,0.0279 44.527847,44.527847 0 0 1 -32.26935,-18.30379 49.475391,49.475391 0 0 0 44.06759,-49.143769 49.475391,49.475391 0 0 0 -49.475528,-49.475533 z m 2.097546,5.001245 A 44.527847,44.527847 0 0 1 57.269503,18.813202 44.527847,44.527847 0 0 1 14.839021,63.253901 Z m -4.194576,0.03307 V 63.253901 A 44.527847,44.527847 0 0 1 -31.78604,18.813202 44.527847,44.527847 0 0 1 10.644445,-25.628013 Z" />
  </g>
</svg>
